{
  "status": "success",
  "code": 200,
  "message": "Data retrieved successfully",
  "data": {
    "pagination": {
      "page": 1,
      "per_page": 10,
      "total_pages": 5,
      "total_items": 47
    },
    "items": [
      {
        "id": "item_001",
        "title": "Sample Item 1",
        "description": "This is a sample item for demonstration",
        "created_at": "2024-01-10T09:15:30Z",
        "updated_at": "2024-01-15T14:22:45Z",
        "status": "active"
      },
      {
        "id": "item_002",
        "title": "Sample Item 2",
        "description": "Another sample item with different properties",
        "created_at": "2024-01-12T11:30:15Z",
        "updated_at": "2024-01-14T16:45:20Z",
        "status": "pending"
      }
    ]
  },
  "errors": null,
  "timestamp": "2024-01-15T15:00:00Z"
}


